%YAML 1.1
%TAG !u! tag:unity3d.com,2011:
--- !u!1 &5463575120919656925
GameObject:
  m_ObjectHideFlags: 0
  m_CorrespondingSourceObject: {fileID: 0}
  m_PrefabInstance: {fileID: 0}
  m_PrefabAsset: {fileID: 0}
  serializedVersion: 6
  m_Component:
  - component: {fileID: 1429275929262415080}
  - component: {fileID: 5628301042368604405}
  - component: {fileID: 7117973448081791758}
  m_Layer: 31
  m_Name: Layer1
  m_TagString: Untagged
  m_Icon: {fileID: 0}
  m_NavMeshLayer: 0
  m_StaticEditorFlags: 0
  m_IsActive: 1
--- !u!4 &1429275929262415080
Transform:
  m_ObjectHideFlags: 0
  m_CorrespondingSourceObject: {fileID: 0}
  m_PrefabInstance: {fileID: 0}
  m_PrefabAsset: {fileID: 0}
  m_GameObject: {fileID: 5463575120919656925}
  m_LocalRotation: {x: -0, y: -0, z: -0, w: 1}
  m_LocalPosition: {x: 0, y: 0, z: 0}
  m_LocalScale: {x: 1, y: 1, z: 1}
  m_Children: []
  m_Father: {fileID: 7408761144703670375}
  m_RootOrder: 0
  m_LocalEulerAnglesHint: {x: 0, y: 0, z: 0}
--- !u!1839735485 &5628301042368604405
Tilemap:
  m_ObjectHideFlags: 0
  m_CorrespondingSourceObject: {fileID: 0}
  m_PrefabInstance: {fileID: 0}
  m_PrefabAsset: {fileID: 0}
  m_GameObject: {fileID: 5463575120919656925}
  m_Enabled: 1
  m_Tiles:
  - first: {x: 4, y: -5, z: 0}
    second:
      m_TileIndex: 41
      m_TileSpriteIndex: 41
      m_TileMatrixIndex: 0
      m_TileColorIndex: 0
      m_ObjectToInstantiate: {fileID: 0}
      m_TileFlags: 1
      m_ColliderType: 1
  - first: {x: 5, y: -5, z: 0}
    second:
      m_TileIndex: 42
      m_TileSpriteIndex: 42
      m_TileMatrixIndex: 0
      m_TileColorIndex: 0
      m_ObjectToInstantiate: {fileID: 0}
      m_TileFlags: 1
      m_ColliderType: 1
  - first: {x: 6, y: -5, z: 0}
    second:
      m_TileIndex: 43
      m_TileSpriteIndex: 43
      m_TileMatrixIndex: 0
      m_TileColorIndex: 0
      m_ObjectToInstantiate: {fileID: 0}
      m_TileFlags: 1
      m_ColliderType: 1
  - first: {x: 8, y: -5, z: 0}
    second:
      m_TileIndex: 44
      m_TileSpriteIndex: 44
      m_TileMatrixIndex: 0
      m_TileColorIndex: 0
      m_ObjectToInstantiate: {fileID: 0}
      m_TileFlags: 1
      m_ColliderType: 1
  - first: {x: 9, y: -5, z: 0}
    second:
      m_TileIndex: 45
      m_TileSpriteIndex: 45
      m_TileMatrixIndex: 0
      m_TileColorIndex: 0
      m_ObjectToInstantiate: {fileID: 0}
      m_TileFlags: 1
      m_ColliderType: 1
  - first: {x: 4, y: -4, z: 0}
    second:
      m_TileIndex: 36
      m_TileSpriteIndex: 36
      m_TileMatrixIndex: 0
      m_TileColorIndex: 0
      m_ObjectToInstantiate: {fileID: 0}
      m_TileFlags: 1
      m_ColliderType: 1
  - first: {x: 5, y: -4, z: 0}
    second:
      m_TileIndex: 37
      m_TileSpriteIndex: 37
      m_TileMatrixIndex: 0
      m_TileColorIndex: 0
      m_ObjectToInstantiate: {fileID: 0}
      m_TileFlags: 1
      m_ColliderType: 1
  - first: {x: 6, y: -4, z: 0}
    second:
      m_TileIndex: 38
      m_TileSpriteIndex: 38
      m_TileMatrixIndex: 0
      m_TileColorIndex: 0
      m_ObjectToInstantiate: {fileID: 0}
      m_TileFlags: 1
      m_ColliderType: 1
  - first: {x: 8, y: -4, z: 0}
    second:
      m_TileIndex: 39
      m_TileSpriteIndex: 39
      m_TileMatrixIndex: 0
      m_TileColorIndex: 0
      m_ObjectToInstantiate: {fileID: 0}
      m_TileFlags: 1
      m_ColliderType: 1
  - first: {x: 9, y: -4, z: 0}
    second:
      m_TileIndex: 40
      m_TileSpriteIndex: 40
      m_TileMatrixIndex: 0
      m_TileColorIndex: 0
      m_ObjectToInstantiate: {fileID: 0}
      m_TileFlags: 1
      m_ColliderType: 1
  - first: {x: -2, y: -2, z: 0}
    second:
      m_TileIndex: 14
      m_TileSpriteIndex: 14
      m_TileMatrixIndex: 0
      m_TileColorIndex: 0
      m_ObjectToInstantiate: {fileID: 0}
      m_TileFlags: 1
      m_ColliderType: 1
  - first: {x: -1, y: -2, z: 0}
    second:
      m_TileIndex: 13
      m_TileSpriteIndex: 13
      m_TileMatrixIndex: 0
      m_TileColorIndex: 0
      m_ObjectToInstantiate: {fileID: 0}
      m_TileFlags: 1
      m_ColliderType: 1
  - first: {x: 0, y: -2, z: 0}
    second:
      m_TileIndex: 12
      m_TileSpriteIndex: 12
      m_TileMatrixIndex: 0
      m_TileColorIndex: 0
      m_ObjectToInstantiate: {fileID: 0}
      m_TileFlags: 1
      m_ColliderType: 1
  - first: {x: 1, y: -2, z: 0}
    second:
      m_TileIndex: 15
      m_TileSpriteIndex: 15
      m_TileMatrixIndex: 0
      m_TileColorIndex: 0
      m_ObjectToInstantiate: {fileID: 0}
      m_TileFlags: 1
      m_ColliderType: 1
  - first: {x: 4, y: -2, z: 0}
    second:
      m_TileIndex: 33
      m_TileSpriteIndex: 33
      m_TileMatrixIndex: 0
      m_TileColorIndex: 0
      m_ObjectToInstantiate: {fileID: 0}
      m_TileFlags: 1
      m_ColliderType: 1
  - first: {x: 5, y: -2, z: 0}
    second:
      m_TileIndex: 32
      m_TileSpriteIndex: 32
      m_TileMatrixIndex: 0
      m_TileColorIndex: 0
      m_ObjectToInstantiate: {fileID: 0}
      m_TileFlags: 1
      m_ColliderType: 1
  - first: {x: 6, y: -2, z: 0}
    second:
      m_TileIndex: 31
      m_TileSpriteIndex: 31
      m_TileMatrixIndex: 0
      m_TileColorIndex: 0
      m_ObjectToInstantiate: {fileID: 0}
      m_TileFlags: 1
      m_ColliderType: 1
  - first: {x: 8, y: -2, z: 0}
    second:
      m_TileIndex: 35
      m_TileSpriteIndex: 35
      m_TileMatrixIndex: 0
      m_TileColorIndex: 0
      m_ObjectToInstantiate: {fileID: 0}
      m_TileFlags: 1
      m_ColliderType: 1
  - first: {x: 9, y: -2, z: 0}
    second:
      m_TileIndex: 34
      m_TileSpriteIndex: 34
      m_TileMatrixIndex: 0
      m_TileColorIndex: 0
      m_ObjectToInstantiate: {fileID: 0}
      m_TileFlags: 1
      m_ColliderType: 1
  - first: {x: -2, y: -1, z: 0}
    second:
      m_TileIndex: 8
      m_TileSpriteIndex: 8
      m_TileMatrixIndex: 0
      m_TileColorIndex: 0
      m_ObjectToInstantiate: {fileID: 0}
      m_TileFlags: 1
      m_ColliderType: 1
  - first: {x: -1, y: -1, z: 0}
    second:
      m_TileIndex: 9
      m_TileSpriteIndex: 9
      m_TileMatrixIndex: 0
      m_TileColorIndex: 0
      m_ObjectToInstantiate: {fileID: 0}
      m_TileFlags: 1
      m_ColliderType: 1
  - first: {x: 0, y: -1, z: 0}
    second:
      m_TileIndex: 10
      m_TileSpriteIndex: 10
      m_TileMatrixIndex: 0
      m_TileColorIndex: 0
      m_ObjectToInstantiate: {fileID: 0}
      m_TileFlags: 1
      m_ColliderType: 1
  - first: {x: 1, y: -1, z: 0}
    second:
      m_TileIndex: 11
      m_TileSpriteIndex: 11
      m_TileMatrixIndex: 0
      m_TileColorIndex: 0
      m_ObjectToInstantiate: {fileID: 0}
      m_TileFlags: 1
      m_ColliderType: 1
  - first: {x: 4, y: -1, z: 0}
    second:
      m_TileIndex: 26
      m_TileSpriteIndex: 26
      m_TileMatrixIndex: 0
      m_TileColorIndex: 0
      m_ObjectToInstantiate: {fileID: 0}
      m_TileFlags: 1
      m_ColliderType: 1
  - first: {x: 11, y: -1, z: 0}
    second:
      m_TileIndex: 30
      m_TileSpriteIndex: 30
      m_TileMatrixIndex: 0
      m_TileColorIndex: 0
      m_ObjectToInstantiate: {fileID: 0}
      m_TileFlags: 1
      m_ColliderType: 1
  - first: {x: -2, y: 0, z: 0}
    second:
      m_TileIndex: 4
      m_TileSpriteIndex: 4
      m_TileMatrixIndex: 0
      m_TileColorIndex: 0
      m_ObjectToInstantiate: {fileID: 0}
      m_TileFlags: 1
      m_ColliderType: 1
  - first: {x: -1, y: 0, z: 0}
    second:
      m_TileIndex: 5
      m_TileSpriteIndex: 5
      m_TileMatrixIndex: 0
      m_TileColorIndex: 0
      m_ObjectToInstantiate: {fileID: 0}
      m_TileFlags: 1
      m_ColliderType: 1
  - first: {x: 0, y: 0, z: 0}
    second:
      m_TileIndex: 6
      m_TileSpriteIndex: 6
      m_TileMatrixIndex: 0
      m_TileColorIndex: 0
      m_ObjectToInstantiate: {fileID: 0}
      m_TileFlags: 1
      m_ColliderType: 1
  - first: {x: 1, y: 0, z: 0}
    second:
      m_TileIndex: 7
      m_TileSpriteIndex: 7
      m_TileMatrixIndex: 0
      m_TileColorIndex: 0
      m_ObjectToInstantiate: {fileID: 0}
      m_TileFlags: 1
      m_ColliderType: 1
  - first: {x: 4, y: 0, z: 0}
    second:
      m_TileIndex: 21
      m_TileSpriteIndex: 21
      m_TileMatrixIndex: 0
      m_TileColorIndex: 0
      m_ObjectToInstantiate: {fileID: 0}
      m_TileFlags: 1
      m_ColliderType: 1
  - first: {x: 11, y: 0, z: 0}
    second:
      m_TileIndex: 25
      m_TileSpriteIndex: 25
      m_TileMatrixIndex: 0
      m_TileColorIndex: 0
      m_ObjectToInstantiate: {fileID: 0}
      m_TileFlags: 1
      m_ColliderType: 1
  - first: {x: -2, y: 1, z: 0}
    second:
      m_TileIndex: 0
      m_TileSpriteIndex: 0
      m_TileMatrixIndex: 0
      m_TileColorIndex: 0
      m_ObjectToInstantiate: {fileID: 0}
      m_TileFlags: 1
      m_ColliderType: 1
  - first: {x: -1, y: 1, z: 0}
    second:
      m_TileIndex: 1
      m_TileSpriteIndex: 1
      m_TileMatrixIndex: 0
      m_TileColorIndex: 0
      m_ObjectToInstantiate: {fileID: 0}
      m_TileFlags: 1
      m_ColliderType: 1
  - first: {x: 0, y: 1, z: 0}
    second:
      m_TileIndex: 2
      m_TileSpriteIndex: 2
      m_TileMatrixIndex: 0
      m_TileColorIndex: 0
      m_ObjectToInstantiate: {fileID: 0}
      m_TileFlags: 1
      m_ColliderType: 1
  - first: {x: 1, y: 1, z: 0}
    second:
      m_TileIndex: 3
      m_TileSpriteIndex: 3
      m_TileMatrixIndex: 0
      m_TileColorIndex: 0
      m_ObjectToInstantiate: {fileID: 0}
      m_TileFlags: 1
      m_ColliderType: 1
  - first: {x: 4, y: 1, z: 0}
    second:
      m_TileIndex: 16
      m_TileSpriteIndex: 16
      m_TileMatrixIndex: 0
      m_TileColorIndex: 0
      m_ObjectToInstantiate: {fileID: 0}
      m_TileFlags: 1
      m_ColliderType: 1
  - first: {x: 5, y: 1, z: 0}
    second:
      m_TileIndex: 17
      m_TileSpriteIndex: 27
      m_TileMatrixIndex: 0
      m_TileColorIndex: 0
      m_ObjectToInstantiate: {fileID: 0}
      m_TileFlags: 1
      m_ColliderType: 1
  - first: {x: 6, y: 1, z: 0}
    second:
      m_TileIndex: 18
      m_TileSpriteIndex: 28
      m_TileMatrixIndex: 0
      m_TileColorIndex: 0
      m_ObjectToInstantiate: {fileID: 0}
      m_TileFlags: 1
      m_ColliderType: 1
  - first: {x: 8, y: 1, z: 0}
    second:
      m_TileIndex: 19
      m_TileSpriteIndex: 29
      m_TileMatrixIndex: 0
      m_TileColorIndex: 0
      m_ObjectToInstantiate: {fileID: 0}
      m_TileFlags: 1
      m_ColliderType: 1
  - first: {x: 11, y: 1, z: 0}
    second:
      m_TileIndex: 20
      m_TileSpriteIndex: 20
      m_TileMatrixIndex: 0
      m_TileColorIndex: 0
      m_ObjectToInstantiate: {fileID: 0}
      m_TileFlags: 1
      m_ColliderType: 1
  - first: {x: -2, y: 3, z: 0}
    second:
      m_TileIndex: 49
      m_TileSpriteIndex: 47
      m_TileMatrixIndex: 0
      m_TileColorIndex: 0
      m_ObjectToInstantiate: {fileID: 0}
      m_TileFlags: 1
      m_ColliderType: 1
  - first: {x: 5, y: 3, z: 0}
    second:
      m_TileIndex: 28
      m_TileSpriteIndex: 23
      m_TileMatrixIndex: 0
      m_TileColorIndex: 0
      m_ObjectToInstantiate: {fileID: 0}
      m_TileFlags: 1
      m_ColliderType: 1
  - first: {x: 6, y: 3, z: 0}
    second:
      m_TileIndex: 27
      m_TileSpriteIndex: 22
      m_TileMatrixIndex: 0
      m_TileColorIndex: 0
      m_ObjectToInstantiate: {fileID: 0}
      m_TileFlags: 1
      m_ColliderType: 1
  - first: {x: 8, y: 3, z: 0}
    second:
      m_TileIndex: 29
      m_TileSpriteIndex: 24
      m_TileMatrixIndex: 0
      m_TileColorIndex: 0
      m_ObjectToInstantiate: {fileID: 0}
      m_TileFlags: 1
      m_ColliderType: 1
  - first: {x: 5, y: 4, z: 0}
    second:
      m_TileIndex: 23
      m_TileSpriteIndex: 18
      m_TileMatrixIndex: 0
      m_TileColorIndex: 0
      m_ObjectToInstantiate: {fileID: 0}
      m_TileFlags: 1
      m_ColliderType: 1
  - first: {x: 6, y: 4, z: 0}
    second:
      m_TileIndex: 22
      m_TileSpriteIndex: 17
      m_TileMatrixIndex: 0
      m_TileColorIndex: 0
      m_ObjectToInstantiate: {fileID: 0}
      m_TileFlags: 1
      m_ColliderType: 1
  - first: {x: 8, y: 4, z: 0}
    second:
      m_TileIndex: 24
      m_TileSpriteIndex: 19
      m_TileMatrixIndex: 0
      m_TileColorIndex: 0
      m_ObjectToInstantiate: {fileID: 0}
      m_TileFlags: 1
      m_ColliderType: 1
  - first: {x: 1, y: 7, z: 0}
    second:
      m_TileIndex: 48
      m_TileSpriteIndex: 46
      m_TileMatrixIndex: 0
      m_TileColorIndex: 0
      m_ObjectToInstantiate: {fileID: 0}
      m_TileFlags: 1
      m_ColliderType: 1
  - first: {x: 4, y: 7, z: 0}
    second:
      m_TileIndex: 46
      m_TileSpriteIndex: 29
      m_TileMatrixIndex: 0
      m_TileColorIndex: 0
      m_ObjectToInstantiate: {fileID: 0}
      m_TileFlags: 2
      m_ColliderType: 1
  m_AnimatedTiles: {}
  m_TileAssetArray:
  - m_RefCount: 1
    m_Data: {fileID: 11400000, guid: 4c97f413dbf574b4cbad3e2600f07982, type: 2}
  - m_RefCount: 1
    m_Data: {fileID: 11400000, guid: af9d2c912b31748eb9a526db694a9833, type: 2}
  - m_RefCount: 1
    m_Data: {fileID: 11400000, guid: 4eb21b5b1c1454574bb24c313e9bfc72, type: 2}
  - m_RefCount: 1
    m_Data: {fileID: 11400000, guid: 143f41f456e404a5d9d8c50eff774376, type: 2}
  - m_RefCount: 1
    m_Data: {fileID: 11400000, guid: 9225f60ff04b4441b8eebd372f00360b, type: 2}
  - m_RefCount: 1
    m_Data: {fileID: 11400000, guid: 00e33c28380f6422d90936e4902b3e0a, type: 2}
  - m_RefCount: 1
    m_Data: {fileID: 11400000, guid: 447f6e3e914dd4b6d9e51f6ce6103c28, type: 2}
  - m_RefCount: 1
    m_Data: {fileID: 11400000, guid: 4c525ee9d4f0c4f08b1a45d6ed94f795, type: 2}
  - m_RefCount: 1
    m_Data: {fileID: 11400000, guid: 47efc83a54ae3420ebda97db636a8468, type: 2}
  - m_RefCount: 1
    m_Data: {fileID: 11400000, guid: 33eacce0ee07a440ba4cae2b45cc2392, type: 2}
  - m_RefCount: 1
    m_Data: {fileID: 11400000, guid: 7031ae43c6cae430ab13765231722df1, type: 2}
  - m_RefCount: 1
    m_Data: {fileID: 11400000, guid: de1a4652f2e4046a4b71d695911586d3, type: 2}
  - m_RefCount: 1
    m_Data: {fileID: 11400000, guid: a2bdb855e40384cc8af1e9ce3530b54b, type: 2}
  - m_RefCount: 1
    m_Data: {fileID: 11400000, guid: fa03266e9ea234b79a69ca9b1b4b88f8, type: 2}
  - m_RefCount: 1
    m_Data: {fileID: 11400000, guid: a863b62a081994a8ea1e3d030ac9e67e, type: 2}
  - m_RefCount: 1
    m_Data: {fileID: 11400000, guid: c0f28f9d142ca4910a3a0f008dc98550, type: 2}
  - m_RefCount: 1
    m_Data: {fileID: 11400000, guid: 7d3f436a9eea94708be257ff58d12e33, type: 2}
  - m_RefCount: 1
    m_Data: {fileID: 11400000, guid: 4bc58bce0c41342c08d3a2c5a9334985, type: 2}
  - m_RefCount: 1
    m_Data: {fileID: 11400000, guid: b56a9316896734c05a224955047f33ae, type: 2}
  - m_RefCount: 1
    m_Data: {fileID: 11400000, guid: 33a7ee108f9964085a22ceed21792d42, type: 2}
  - m_RefCount: 1
    m_Data: {fileID: 11400000, guid: 3c974df2d82dc4b8b91a94cbbbf9127b, type: 2}
  - m_RefCount: 1
    m_Data: {fileID: 11400000, guid: 5461914169f824d929a914d6977cffc1, type: 2}
  - m_RefCount: 1
    m_Data: {fileID: 11400000, guid: 737837f81870a475b9a8e154842754d9, type: 2}
  - m_RefCount: 1
    m_Data: {fileID: 11400000, guid: 2bbaada4c3dcb4e1689c848472a3040b, type: 2}
  - m_RefCount: 1
    m_Data: {fileID: 11400000, guid: 3f1ba3539b17146eab43d2b62c0f77c8, type: 2}
  - m_RefCount: 1
    m_Data: {fileID: 11400000, guid: 688b1254a35c94ebd9b81cac1b5d4101, type: 2}
  - m_RefCount: 1
    m_Data: {fileID: 11400000, guid: 8696aad2b88c545a0984b2dbdc8d0170, type: 2}
  - m_RefCount: 1
    m_Data: {fileID: 11400000, guid: 4e9f1171519f844eead2cdb832194b77, type: 2}
  - m_RefCount: 1
    m_Data: {fileID: 11400000, guid: 80760f0bb2387484e9515b611cc78739, type: 2}
  - m_RefCount: 1
    m_Data: {fileID: 11400000, guid: 2feb0c01936d948b2a5909de53d73b79, type: 2}
  - m_RefCount: 1
    m_Data: {fileID: 11400000, guid: f495e68b92b344b2f9bd86d16922fc66, type: 2}
  - m_RefCount: 1
    m_Data: {fileID: 11400000, guid: 963f79750f072464f9f881460084c4a0, type: 2}
  - m_RefCount: 1
    m_Data: {fileID: 11400000, guid: 294126338c67d427294291c094e5ac9e, type: 2}
  - m_RefCount: 1
    m_Data: {fileID: 11400000, guid: b9be7b84e5d3c444980c9d890e659910, type: 2}
  - m_RefCount: 1
    m_Data: {fileID: 11400000, guid: 548d3888584a242cd8dc1b8755aed033, type: 2}
  - m_RefCount: 1
    m_Data: {fileID: 11400000, guid: 9fb83f78c6c99471786ed9b9cf751191, type: 2}
  - m_RefCount: 1
    m_Data: {fileID: 11400000, guid: 7b6563f9d54c3485fa5958e0ae68c2a7, type: 2}
  - m_RefCount: 1
    m_Data: {fileID: 11400000, guid: c3a9aa0186d81412d9d8afecccdba6be, type: 2}
  - m_RefCount: 1
    m_Data: {fileID: 11400000, guid: 09865d5b8b2a74c4e960e266fbfff03b, type: 2}
  - m_RefCount: 1
    m_Data: {fileID: 11400000, guid: 521b6da82c478466c9926255be00d858, type: 2}
  - m_RefCount: 1
    m_Data: {fileID: 11400000, guid: 97796c70b0f6d4165967a48077c99a08, type: 2}
  - m_RefCount: 1
    m_Data: {fileID: 11400000, guid: 7c7517e9cc3034604823df2df069bb62, type: 2}
  - m_RefCount: 1
    m_Data: {fileID: 11400000, guid: ac4924760d9924b449b9e5d01bc684d9, type: 2}
  - m_RefCount: 1
    m_Data: {fileID: 11400000, guid: 926a3fd19fd09456bbf50603cebfb653, type: 2}
  - m_RefCount: 1
    m_Data: {fileID: 11400000, guid: 980888504953f47338e335cc71cd556c, type: 2}
  - m_RefCount: 1
    m_Data: {fileID: 11400000, guid: 9d7ec28f587614caea7689caf16a5b8b, type: 2}
  - m_RefCount: 1
    m_Data: {fileID: 11400000, guid: e2e7b58cfc6ae4e52b5d3ee88e182740, type: 2}
  - m_RefCount: 0
    m_Data: {fileID: 0}
  - m_RefCount: 1
    m_Data: {fileID: 11400000, guid: 5cc12bbfe538240bc8b7859f47bd932f, type: 2}
  - m_RefCount: 1
    m_Data: {fileID: 11400000, guid: ecee99dcb92794036b83e17a12368ed5, type: 2}
  m_TileSpriteArray:
  - m_RefCount: 1
    m_Data: {fileID: -6414447125379547148, guid: f25c2d5ea103e4c28b3d98a7fe0492bf,
      type: 3}
  - m_RefCount: 1
    m_Data: {fileID: -2276109588449258574, guid: f25c2d5ea103e4c28b3d98a7fe0492bf,
      type: 3}
  - m_RefCount: 1
    m_Data: {fileID: 7622431064557552515, guid: f25c2d5ea103e4c28b3d98a7fe0492bf,
      type: 3}
  - m_RefCount: 1
    m_Data: {fileID: 289114549585270027, guid: f25c2d5ea103e4c28b3d98a7fe0492bf, type: 3}
  - m_RefCount: 1
    m_Data: {fileID: -5862157076625757123, guid: f25c2d5ea103e4c28b3d98a7fe0492bf,
      type: 3}
  - m_RefCount: 1
    m_Data: {fileID: 7565696428887314959, guid: f25c2d5ea103e4c28b3d98a7fe0492bf,
      type: 3}
  - m_RefCount: 1
    m_Data: {fileID: 3104076937310148729, guid: f25c2d5ea103e4c28b3d98a7fe0492bf,
      type: 3}
  - m_RefCount: 1
    m_Data: {fileID: 4777146490511550170, guid: f25c2d5ea103e4c28b3d98a7fe0492bf,
      type: 3}
  - m_RefCount: 1
    m_Data: {fileID: 4021284656184010451, guid: f25c2d5ea103e4c28b3d98a7fe0492bf,
      type: 3}
  - m_RefCount: 1
    m_Data: {fileID: -5428507737112726026, guid: f25c2d5ea103e4c28b3d98a7fe0492bf,
      type: 3}
  - m_RefCount: 1
    m_Data: {fileID: 8721707918184771119, guid: f25c2d5ea103e4c28b3d98a7fe0492bf,
      type: 3}
  - m_RefCount: 1
    m_Data: {fileID: 374688490947754656, guid: f25c2d5ea103e4c28b3d98a7fe0492bf, type: 3}
  - m_RefCount: 1
    m_Data: {fileID: 124453552786969483, guid: f25c2d5ea103e4c28b3d98a7fe0492bf, type: 3}
  - m_RefCount: 1
    m_Data: {fileID: -568864715573125675, guid: f25c2d5ea103e4c28b3d98a7fe0492bf,
      type: 3}
  - m_RefCount: 1
    m_Data: {fileID: -1693060807349068911, guid: f25c2d5ea103e4c28b3d98a7fe0492bf,
      type: 3}
  - m_RefCount: 1
    m_Data: {fileID: -3357515910591759238, guid: f25c2d5ea103e4c28b3d98a7fe0492bf,
      type: 3}
  - m_RefCount: 1
    m_Data: {fileID: -2464266514383608195, guid: 0fed4933604e54644b4fedfdf6211ec5,
      type: 3}
  - m_RefCount: 1
    m_Data: {fileID: 1958745200148787322, guid: 0fed4933604e54644b4fedfdf6211ec5,
      type: 3}
  - m_RefCount: 1
    m_Data: {fileID: 7953296568139915108, guid: 0fed4933604e54644b4fedfdf6211ec5,
      type: 3}
  - m_RefCount: 1
    m_Data: {fileID: 7799159119227759483, guid: 0fed4933604e54644b4fedfdf6211ec5,
      type: 3}
  - m_RefCount: 1
    m_Data: {fileID: -5972448355421142556, guid: 0fed4933604e54644b4fedfdf6211ec5,
      type: 3}
  - m_RefCount: 1
    m_Data: {fileID: -4977721373819348528, guid: 0fed4933604e54644b4fedfdf6211ec5,
      type: 3}
  - m_RefCount: 1
    m_Data: {fileID: 6972465368094823745, guid: 0fed4933604e54644b4fedfdf6211ec5,
      type: 3}
  - m_RefCount: 1
    m_Data: {fileID: -7832389824997676707, guid: 0fed4933604e54644b4fedfdf6211ec5,
      type: 3}
  - m_RefCount: 1
    m_Data: {fileID: -7671020578840251174, guid: 0fed4933604e54644b4fedfdf6211ec5,
      type: 3}
  - m_RefCount: 1
    m_Data: {fileID: -2755257858965140955, guid: 0fed4933604e54644b4fedfdf6211ec5,
      type: 3}
  - m_RefCount: 1
    m_Data: {fileID: -3493280607249542649, guid: 0fed4933604e54644b4fedfdf6211ec5,
      type: 3}
  - m_RefCount: 1
    m_Data: {fileID: -3326836957996475874, guid: 0fed4933604e54644b4fedfdf6211ec5,
      type: 3}
  - m_RefCount: 1
    m_Data: {fileID: -1236713991046615032, guid: 0fed4933604e54644b4fedfdf6211ec5,
      type: 3}
  - m_RefCount: 2
    m_Data: {fileID: 7323906098350758705, guid: 0fed4933604e54644b4fedfdf6211ec5,
      type: 3}
  - m_RefCount: 1
    m_Data: {fileID: 2766323726693326924, guid: 0fed4933604e54644b4fedfdf6211ec5,
      type: 3}
  - m_RefCount: 1
    m_Data: {fileID: -2488111991826676060, guid: 0fed4933604e54644b4fedfdf6211ec5,
      type: 3}
  - m_RefCount: 1
    m_Data: {fileID: -1667590691872097069, guid: 0fed4933604e54644b4fedfdf6211ec5,
      type: 3}
  - m_RefCount: 1
    m_Data: {fileID: -3503154757471595975, guid: 0fed4933604e54644b4fedfdf6211ec5,
      type: 3}
  - m_RefCount: 1
    m_Data: {fileID: -7647882774218309960, guid: 0fed4933604e54644b4fedfdf6211ec5,
      type: 3}
  - m_RefCount: 1
    m_Data: {fileID: -7175372319361646676, guid: 0fed4933604e54644b4fedfdf6211ec5,
      type: 3}
  - m_RefCount: 1
    m_Data: {fileID: -3542295685721467227, guid: 0fed4933604e54644b4fedfdf6211ec5,
      type: 3}
  - m_RefCount: 1
    m_Data: {fileID: -8076291029264883859, guid: 0fed4933604e54644b4fedfdf6211ec5,
      type: 3}
  - m_RefCount: 1
    m_Data: {fileID: -3487811798477773700, guid: 0fed4933604e54644b4fedfdf6211ec5,
      type: 3}
  - m_RefCount: 1
    m_Data: {fileID: -5134054752372163016, guid: 0fed4933604e54644b4fedfdf6211ec5,
      type: 3}
  - m_RefCount: 1
    m_Data: {fileID: 6192572789505845407, guid: 0fed4933604e54644b4fedfdf6211ec5,
      type: 3}
  - m_RefCount: 1
    m_Data: {fileID: -4897907173415269231, guid: 0fed4933604e54644b4fedfdf6211ec5,
      type: 3}
  - m_RefCount: 1
    m_Data: {fileID: 3803662930465603148, guid: 0fed4933604e54644b4fedfdf6211ec5,
      type: 3}
  - m_RefCount: 1
    m_Data: {fileID: -1076426586580465502, guid: 0fed4933604e54644b4fedfdf6211ec5,
      type: 3}
  - m_RefCount: 1
    m_Data: {fileID: -5576478142290952502, guid: 0fed4933604e54644b4fedfdf6211ec5,
      type: 3}
  - m_RefCount: 1
    m_Data: {fileID: 3747544219709766277, guid: 0fed4933604e54644b4fedfdf6211ec5,
      type: 3}
  - m_RefCount: 1
    m_Data: {fileID: 21300000, guid: 717a21f002a93417e83efcb318a3cb13, type: 3}
  - m_RefCount: 1
    m_Data: {fileID: 21300000, guid: 358d474377419494da7dca099e239333, type: 3}
  m_TileMatrixArray:
  - m_RefCount: 49
    m_Data:
      e00: 1
      e01: 0
      e02: 0
      e03: 0
      e10: 0
      e11: 1
      e12: 0
      e13: 0
      e20: 0
      e21: 0
      e22: 1
      e23: 0
      e30: 0
      e31: 0
      e32: 0
      e33: 1
  m_TileColorArray:
  - m_RefCount: 49
    m_Data: {r: 1, g: 1, b: 1, a: 1}
  m_AnimationFrameRate: 1
  m_Color: {r: 1, g: 1, b: 1, a: 1}
  m_Origin: {x: -2, y: -5, z: 0}
  m_Size: {x: 14, y: 13, z: 1}
  m_TileAnchor: {x: 0.5, y: 0.5, z: 0}
  m_TileOrientation: 0
  m_TileOrientationMatrix:
    e00: 1
    e01: 0
    e02: 0
    e03: 0
    e10: 0
    e11: 1
    e12: 0
    e13: 0
    e20: 0
    e21: 0
    e22: 1
    e23: 0
    e30: 0
    e31: 0
    e32: 0
    e33: 1
--- !u!483693784 &7117973448081791758
TilemapRenderer:
  m_ObjectHideFlags: 0
  m_CorrespondingSourceObject: {fileID: 0}
  m_PrefabInstance: {fileID: 0}
  m_PrefabAsset: {fileID: 0}
  m_GameObject: {fileID: 5463575120919656925}
  m_Enabled: 0
  m_CastShadows: 0
  m_ReceiveShadows: 0
  m_DynamicOccludee: 0
  m_MotionVectors: 1
  m_LightProbeUsage: 0
  m_ReflectionProbeUsage: 0
  m_RenderingLayerMask: 1
  m_RendererPriority: 0
  m_Materials:
  - {fileID: 10754, guid: 0000000000000000f000000000000000, type: 0}
  m_StaticBatchInfo:
    firstSubMesh: 0
    subMeshCount: 0
  m_StaticBatchRoot: {fileID: 0}
  m_ProbeAnchor: {fileID: 0}
  m_LightProbeVolumeOverride: {fileID: 0}
  m_ScaleInLightmap: 1
  m_ReceiveGI: 1
  m_PreserveUVs: 0
  m_IgnoreNormalsForChartDetection: 0
  m_ImportantGI: 0
  m_StitchLightmapSeams: 1
  m_SelectedEditorRenderState: 0
  m_MinimumChartSize: 4
  m_AutoUVMaxDistance: 0.5
  m_AutoUVMaxAngle: 89
  m_LightmapParameters: {fileID: 0}
  m_SortingLayerID: 0
  m_SortingLayer: 0
  m_SortingOrder: 0
  m_ChunkSize: {x: 32, y: 32, z: 32}
  m_ChunkCullingBounds: {x: 0, y: 0, z: 0}
  m_MaxChunkCount: 16
  m_MaxFrameAge: 16
  m_SortOrder: 0
  m_Mode: 0
  m_DetectChunkCullingBounds: 0
  m_MaskInteraction: 0
--- !u!1 &5985784769000081562
GameObject:
  m_ObjectHideFlags: 0
  m_CorrespondingSourceObject: {fileID: 0}
  m_PrefabInstance: {fileID: 0}
  m_PrefabAsset: {fileID: 0}
  serializedVersion: 6
  m_Component:
  - component: {fileID: 7408761144703670375}
  - component: {fileID: 2465700524348195860}
  m_Layer: 31
  m_Name: Tile Palette
  m_TagString: Untagged
  m_Icon: {fileID: 0}
  m_NavMeshLayer: 0
  m_StaticEditorFlags: 0
  m_IsActive: 1
--- !u!4 &7408761144703670375
Transform:
  m_ObjectHideFlags: 0
  m_CorrespondingSourceObject: {fileID: 0}
  m_PrefabInstance: {fileID: 0}
  m_PrefabAsset: {fileID: 0}
  m_GameObject: {fileID: 5985784769000081562}
  m_LocalRotation: {x: 0, y: 0, z: 0, w: 1}
  m_LocalPosition: {x: 0, y: 0, z: 0}
  m_LocalScale: {x: 1, y: 1, z: 1}
  m_Children:
  - {fileID: 1429275929262415080}
  m_Father: {fileID: 0}
  m_RootOrder: 0
  m_LocalEulerAnglesHint: {x: 0, y: 0, z: 0}
--- !u!156049354 &2465700524348195860
Grid:
  m_ObjectHideFlags: 0
  m_CorrespondingSourceObject: {fileID: 0}
  m_PrefabInstance: {fileID: 0}
  m_PrefabAsset: {fileID: 0}
  m_GameObject: {fileID: 5985784769000081562}
  m_Enabled: 1
  m_CellSize: {x: 1, y: 1, z: 0}
  m_CellGap: {x: 0, y: 0, z: 0}
  m_CellLayout: 0
  m_CellSwizzle: 0
--- !u!114 &1005442808555309934
MonoBehaviour:
  m_ObjectHideFlags: 0
  m_CorrespondingSourceObject: {fileID: 0}
  m_PrefabInstance: {fileID: 0}
  m_PrefabAsset: {fileID: 0}
  m_GameObject: {fileID: 0}
  m_Enabled: 1
  m_EditorHideFlags: 0
  m_Script: {fileID: 12395, guid: 0000000000000000e000000000000000, type: 0}
  m_Name: Palette Settings
  m_EditorClassIdentifier: 
  cellSizing: 0
